Activity list with total duration for each activity

Sleeping                                05:11:03:31
Toileting                               00:02:20:34
Showering                               00:01:34:09
Breakfast                               00:02:58:08
Grooming                                00:02:40:42
Spare_Time/TV                           05:22:28:55
Leaving                                 01:03:44:44
Lunch                                   00:05:13:31
Snack                                   00:00:06:01
